Lufthansa,A321,11/7/2017,6:30:00,Frankfurt,Boston,1000
Lufthansa,A310,11/7/2017,10:45:00,Manchester,Boston,1001
Lufthansa,B767,11/7/2017,13:00:00,Doha,Vegas,1002
Lufthansa,B777,11/7/2017,16:00:00,Dubai,Vegas,1003
Lufthansa,B767,11/7/2017,20:00:00,Mumbai,Paris,1004
Lufthansa,A380,11/7/2017,23:45:00,Tokyo,Paris,1005
Lufthansa,A321,11/8/2017,6:30:00,Frankfurt,Boston,1006
Lufthansa,A310,11/8/2017,10:45:00,Manchester,Boston,1007
Lufthansa,B767,11/8/2017,13:00:00,Doha,Vegas,1008
Lufthansa,B777,11/8/2017,16:00:00,Dubai,Vegas,1009
Lufthansa,B767,11/8/2017,20:00:00,Mumbai,Paris,1010
Lufthansa,A380,11/8/2017,23:45:00,Tokyo,Paris,1011
British Airways,B757,11/7/2017,6:30:00,Frankfurt,Boston,1012
British Airways,A310,11/7/2017,10:45:00,Manchester,Boston,1013
British Airways,A310,11/7/2017,13:00:00,Doha,Vegas,1014
British Airways,B767,11/7/2017,16:00:00,Dubai,Vegas,1015
British Airways,A310,11/7/2017,20:00:00,Mumbai,Paris,1016
British Airways,A380,11/7/2017,23:45:00,Tokyo,Paris,1017
British Airways,B757,11/8/2017,6:30:00,Frankfurt,Boston,1018
British Airways,A310,11/8/2017,10:45:00,Manchester,Boston,1019
British Airways,A310,11/8/2017,13:00:00,Doha,Vegas,1020
British Airways,B767,11/8/2017,16:00:00,Dubai,Vegas,1021
British Airways,A310,11/8/2017,20:00:00,Mumbai,Paris,1022
British Airways,A380,11/8/2017,23:45:00,Tokyo,Paris,1023
Qatar,A310,11/7/2017,6:30:00,Frankfurt,Boston,1024
Qatar,A380,11/7/2017,10:45:00,Manchester,Boston,1025
Qatar,B767,11/7/2017,13:00:00,Doha,Vegas,1026
Qatar,A321,11/7/2017,16:00:00,Dubai,Vegas,1027
Qatar,A380,11/7/2017,20:00:00,Mumbai,Paris,1028
Qatar,B757,11/7/2017,23:45:00,Tokyo,Paris,1029
Qatar,A310,11/8/2017,6:30:00,Frankfurt,Boston,1030
Qatar,A380,11/8/2017,10:45:00,Manchester,Boston,1031
Qatar,B767,11/8/2017,13:00:00,Doha,Vegas,1032
Qatar,A321,11/8/2017,16:00:00,Dubai,Vegas,1033
Qatar,A380,11/8/2017,20:00:00,Mumbai,Paris,1034
Qatar,B757,11/8/2017,23:45:00,Tokyo,Paris,1035
Emirates,B777,11/7/2017,6:30:00,Frankfurt,Boston,1036
Emirates,A321,11/7/2017,10:45:00,Manchester,Boston,1037
Emirates,A380,11/7/2017,13:00:00,Doha,Vegas,1038
Emirates,B767,11/7/2017,16:00:00,Dubai,Vegas,1039
Emirates,A380,11/7/2017,20:00:00,Mumbai,Paris,1040
Emirates,A310,11/7/2017,23:45:00,Tokyo,Paris,1041
Emirates,B777,11/8/2017,6:30:00,Frankfurt,Boston,1042
Emirates,A321,11/8/2017,10:45:00,Manchester,Boston,1043
Emirates,A380,11/8/2017,13:00:00,Doha,Vegas,1044
Emirates,B767,11/8/2017,16:00:00,Dubai,Vegas,1045
Emirates,A380,11/8/2017,20:00:00,Mumbai,Paris,1046
Emirates,A310,11/8/2017,23:45:00,Tokyo,Paris,1047
